module gitlab.com/pragmaticreviews/grpc-nodego

go 1.12

require (
	github.com/golang/protobuf v1.3.2
	golang.org/x/lint v0.0.0-20190313153728-d0100b6bd8b3 // indirect
	golang.org/x/tools v0.0.0-20190524140312-2c0ae7006135 // indirect
	google.golang.org/grpc v1.27.1
	honnef.co/go/tools v0.0.0-20190523083050-ea95bdfd59fc // indirect
)
